0 0 w
1 0 w
2 0 w
3 0 w
4 0 w
5 0 w
6 0 w
7 0 w
8 0 w
9 0 w
10 0 w
11 0 w
12 0 w
13 0 w
14 0 w
15 0 w
16 0 w
17 0 w
18 0 w
19 0 w
20 0 w
21 0 w
22 0 w
23 0 w
24 0 w
25 0 w
26 0 w
27 0 w
28 0 w
29 0 w
30 0 w
31 0 w
32 0 w
33 0 w
34 0 w
35 0 w
36 0 w
37 0 w
38 0 w
39 0 s
42 0 s
43 0 w
44 0 w
45 0 w
46 0 w
47 0 w
48 0 w
49 0 w
50 0 w
51 0 w
52 0 w
53 0 w
54 0 w
55 0 w
56 0 w
57 0 w
58 0 w
59 0 w
60 0 w
61 0 w
62 0 w
63 0 w
0 1 w
39 1 w
63 1 w
0 2 w
39 2 w
63 2 w
0 3 w
3 3 w
4 3 w
5 3 w
6 3 w
7 3 w
8 3 w
9 3 w
10 3 w
11 3 w
12 3 w
15 3 w
16 3 w
17 3 w
18 3 w
19 3 w
20 3 w
21 3 w
22 3 w
23 3 w
24 3 w
25 3 w
26 3 w
27 3 w
28 3 w
29 3 w
30 3 w
33 3 w
34 3 w
35 3 w
36 3 w
37 3 w
38 3 w
39 3 w
42 3 w
43 3 w
44 3 w
45 3 w
46 3 w
47 3 w
48 3 w
51 3 w
52 3 w
53 3 w
54 3 w
55 3 w
56 3 w
57 3 w
58 3 w
59 3 w
60 3 w
63 3 w
0 4 w
3 4 w
12 4 w
15 4 w
30 4 w
33 4 w
48 4 w
51 4 w
60 4 w
63 4 w
0 5 w
3 5 w
12 5 w
15 5 w
30 5 w
33 5 w
48 5 w
51 5 w
60 5 w
63 5 w
0 6 w
3 6 w
4 6 w
5 6 w
6 6 w
7 6 w
8 6 w
9 6 w
12 6 w
15 6 w
18 6 w
19 6 w
20 6 w
21 6 w
22 6 w
23 6 w
24 6 w
25 6 w
26 6 w
27 6 w
30 6 w
33 6 w
36 6 w
37 6 w
38 6 w
39 6 w
40 6 w
41 6 w
42 6 w
43 6 w
44 6 w
45 6 w
48 6 w
51 6 w
52 6 w
53 6 w
54 6 w
55 6 w
56 6 w
57 6 w
60 6 w
63 6 w
0 7 w
9 7 w
12 7 w
18 7 w
27 7 w
30 7 w
33 7 w
36 7 w
45 7 w
48 7 w
57 7 w
60 7 w
63 7 w
0 8 w
9 8 w
12 8 w
18 8 w
27 8 w
30 8 w
33 8 w
36 8 w
45 8 w
48 8 w
57 8 w
60 8 w
63 8 w
0 9 w
3 9 w
4 9 w
5 9 w
6 9 w
9 9 w
12 9 w
15 9 w
18 9 w
19 9 w
20 9 w
21 9 w
22 9 w
23 9 w
24 9 w
27 9 w
30 9 w
31 9 w
32 9 w
33 9 w
36 9 w
39 9 w
40 9 w
41 9 w
42 9 w
43 9 w
44 9 w
45 9 w
48 9 w
51 9 w
52 9 w
53 9 w
54 9 w
55 9 w
56 9 w
57 9 w
60 9 w
63 9 w
0 10 w
3 10 w
6 10 w
9 10 w
12 10 w
15 10 w
24 10 w
27 10 w
36 10 w
39 10 w
48 10 w
51 10 w
60 10 w
63 10 w
0 11 w
3 11 w
6 11 w
9 11 w
12 11 w
15 11 w
24 11 w
27 11 w
36 11 w
39 11 w
48 11 w
51 11 w
60 11 w
63 11 w
0 12 w
3 12 w
6 12 w
9 12 w
12 12 w
15 12 w
18 12 w
19 12 w
20 12 w
21 12 w
24 12 w
27 12 w
28 12 w
29 12 w
30 12 w
31 12 w
32 12 w
33 12 w
34 12 w
35 12 w
36 12 w
39 12 w
40 12 w
41 12 w
42 12 w
43 12 w
44 12 w
45 12 w
48 12 w
51 12 w
54 12 w
55 12 w
56 12 w
57 12 w
60 12 w
63 12 w
0 13 w
3 13 w
6 13 w
9 13 w
12 13 w
15 13 w
18 13 w
21 13 w
24 13 w
45 13 w
48 13 w
51 13 w
54 13 w
57 13 w
60 13 w
63 13 w
0 14 w
3 14 w
6 14 w
9 14 w
12 14 w
15 14 w
18 14 w
21 14 w
24 14 w
45 14 w
48 14 w
51 14 w
54 14 w
57 14 w
60 14 w
63 14 w
0 15 w
3 15 w
6 15 w
9 15 w
12 15 w
15 15 w
18 15 w
21 15 w
24 15 w
27 15 w
28 15 w
29 15 w
30 15 w
31 15 w
32 15 w
33 15 w
34 15 w
35 15 w
36 15 w
39 15 w
40 15 w
41 15 w
42 15 w
43 15 w
44 15 w
45 15 w
48 15 w
51 15 w
54 15 w
57 15 w
60 15 w
63 15 w
0 16 w
3 16 w
6 16 w
9 16 w
12 16 w
15 16 w
18 16 w
21 16 w
24 16 w
27 16 w
36 16 w
39 16 w
48 16 w
51 16 w
54 16 w
57 16 w
60 16 w
63 16 w
0 17 w
3 17 w
6 17 w
9 17 w
12 17 w
15 17 w
18 17 w
21 17 w
24 17 w
27 17 w
36 17 w
39 17 w
48 17 w
51 17 w
54 17 w
57 17 w
60 17 w
63 17 w
0 18 w
3 18 w
6 18 w
9 18 w
12 18 w
15 18 w
16 18 w
17 18 w
18 18 w
21 18 w
24 18 w
27 18 w
28 18 w
29 18 w
30 18 w
31 18 w
32 18 w
33 18 w
36 18 w
39 18 w
42 18 w
43 18 w
44 18 w
45 18 w
46 18 w
47 18 w
48 18 w
51 18 w
54 18 w
57 18 w
60 18 w
63 18 w
0 19 w
3 19 w
6 19 w
9 19 w
12 19 w
21 19 w
24 19 w
33 19 w
36 19 w
39 19 w
42 19 w
51 19 w
54 19 w
57 19 w
60 19 w
63 19 w
0 20 w
3 20 w
6 20 w
9 20 w
12 20 w
21 20 w
24 20 w
33 20 w
36 20 w
39 20 w
42 20 w
51 20 w
54 20 w
57 20 w
60 20 w
63 20 w
0 21 w
3 21 w
6 21 w
9 21 w
12 21 w
13 21 w
14 21 w
15 21 w
16 21 w
17 21 w
18 21 w
19 21 w
20 21 w
21 21 w
24 21 w
27 21 w
28 21 w
29 21 w
30 21 w
31 21 w
32 21 w
33 21 w
36 21 w
39 21 w
42 21 w
45 21 w
46 21 w
47 21 w
48 21 w
49 21 w
50 21 w
51 21 w
54 21 w
57 21 w
60 21 w
63 21 w
0 22 w
3 22 w
6 22 w
9 22 w
24 22 w
27 22 w
36 22 w
39 22 w
42 22 w
45 22 w
54 22 w
57 22 w
60 22 w
63 22 w
0 23 w
3 23 w
6 23 w
9 23 w
24 23 w
27 23 w
36 23 w
39 23 w
42 23 w
45 23 w
54 23 w
57 23 w
60 23 w
63 23 w
0 24 w
3 24 w
6 24 w
9 24 w
10 24 w
11 24 w
12 24 w
13 24 w
14 24 w
15 24 w
16 24 w
17 24 w
18 24 w
19 24 w
20 24 w
21 24 w
22 24 w
23 24 w
24 24 w
27 24 w
28 24 w
29 24 w
30 24 w
31 24 w
32 24 w
33 24 w
36 24 w
39 24 w
42 24 w
45 24 w
48 24 w
49 24 w
50 24 w
51 24 w
52 24 w
53 24 w
54 24 w
57 24 w
58 24 w
59 24 w
60 24 w
63 24 w
0 25 w
3 25 w
6 25 w
33 25 w
36 25 w
39 25 w
42 25 w
45 25 w
48 25 w
63 25 w
0 26 w
3 26 w
6 26 w
33 26 w
36 26 w
39 26 w
42 26 w
45 26 w
48 26 w
63 26 w
0 27 w
3 27 w
6 27 w
7 27 w
8 27 w
9 27 w
10 27 w
11 27 w
12 27 w
15 27 w
16 27 w
17 27 w
18 27 w
19 27 w
20 27 w
21 27 w
22 27 w
23 27 w
24 27 w
27 27 w
28 27 w
29 27 w
30 27 w
31 27 w
32 27 w
33 27 w
36 27 w
39 27 w
42 27 w
43 27 w
44 27 w
45 27 w
48 27 w
49 27 w
50 27 w
51 27 w
52 27 w
53 27 w
54 27 w
55 27 w
56 27 w
57 27 w
58 27 w
59 27 w
60 27 w
63 27 w
0 28 w
3 28 w
12 28 w
15 28 w
24 28 w
27 28 w
36 28 w
39 28 w
60 28 w
63 28 w
0 29 w
3 29 w
12 29 w
15 29 w
24 29 w
27 29 w
36 29 w
39 29 w
60 29 w
63 29 w
0 30 w
3 30 w
6 30 w
7 30 w
8 30 w
9 30 w
12 30 w
15 30 w
18 30 w
19 30 w
20 30 w
21 30 w
24 30 w
27 30 w
30 30 w
31 30 w
32 30 w
33 30 w
34 30 w
35 30 w
36 30 w
39 30 w
40 30 w
41 30 w
42 30 w
43 30 w
44 30 w
45 30 w
46 30 w
47 30 w
48 30 w
49 30 w
50 30 w
51 30 w
54 30 w
55 30 w
56 30 w
57 30 w
58 30 w
59 30 w
60 30 w
63 30 w
0 31 w
3 31 w
6 31 w
9 31 w
12 31 w
15 31 w
18 31 w
21 31 w
24 31 w
27 31 w
30 31 w
51 31 w
54 31 w
63 31 w
0 32 w
3 32 w
6 32 w
9 32 w
12 32 w
15 32 w
18 32 w
21 32 w
24 32 w
27 32 w
30 32 w
51 32 w
54 32 w
63 32 w
0 33 w
3 33 w
6 33 w
9 33 w
12 33 w
15 33 w
18 33 w
21 33 w
24 33 w
25 33 w
26 33 w
27 33 w
30 33 w
31 33 w
32 33 w
33 33 w
34 33 w
35 33 w
36 33 w
39 33 w
40 33 w
41 33 w
42 33 w
43 33 w
44 33 w
45 33 w
46 33 w
47 33 w
48 33 w
49 33 w
50 33 w
51 33 w
54 33 w
57 33 w
58 33 w
59 33 w
60 33 w
63 33 w
0 34 w
3 34 w
6 34 w
9 34 w
12 34 w
15 34 w
18 34 w
21 34 w
36 34 w
39 34 w
54 34 w
57 34 w
60 34 w
63 34 w
0 35 w
3 35 w
6 35 w
9 35 w
12 35 w
15 35 w
18 35 w
21 35 w
36 35 w
39 35 w
54 35 w
57 35 w
60 35 w
63 35 w
0 36 w
3 36 w
6 36 w
9 36 w
12 36 w
15 36 w
18 36 w
21 36 w
24 36 w
25 36 w
26 36 w
27 36 w
30 36 w
31 36 w
32 36 w
33 36 w
34 36 w
35 36 w
36 36 w
39 36 w
42 36 w
43 36 w
44 36 w
45 36 w
46 36 w
47 36 w
48 36 w
49 36 w
50 36 w
51 36 w
52 36 w
53 36 w
54 36 w
57 36 w
60 36 w
63 36 w
0 37 w
3 37 w
6 37 w
9 37 w
12 37 w
15 37 w
18 37 w
21 37 w
24 37 w
27 37 w
30 37 w
39 37 w
42 37 w
57 37 w
60 37 w
63 37 w
0 38 w
3 38 w
6 38 w
9 38 w
12 38 w
15 38 w
18 38 w
21 38 w
24 38 w
27 38 w
30 38 w
39 38 w
42 38 w
57 38 w
60 38 w
63 38 w
0 39 w
3 39 w
6 39 w
9 39 w
12 39 w
15 39 w
18 39 w
21 39 w
24 39 w
27 39 w
30 39 w
33 39 w
34 39 w
35 39 w
36 39 w
37 39 w
38 39 w
39 39 w
42 39 w
45 39 w
46 39 w
47 39 w
48 39 w
49 39 w
50 39 w
51 39 w
52 39 w
53 39 w
54 39 w
55 39 w
56 39 w
57 39 w
60 39 w
63 39 w
0 40 w
3 40 w
6 40 w
9 40 w
12 40 w
15 40 w
18 40 w
21 40 w
24 40 w
27 40 w
30 40 w
33 40 w
42 40 w
45 40 w
60 40 w
63 40 w
0 41 w
3 41 w
6 41 w
9 41 w
12 41 w
15 41 w
18 41 w
21 41 w
24 41 w
27 41 w
30 41 w
33 41 w
42 41 w
45 41 w
60 41 w
63 41 w
0 42 w
3 42 w
6 42 w
9 42 w
10 42 w
11 42 w
12 42 w
15 42 w
18 42 w
21 42 w
24 42 w
27 42 w
28 42 w
29 42 w
30 42 w
33 42 w
36 42 w
37 42 w
38 42 w
39 42 w
40 42 w
41 42 w
42 42 w
45 42 w
46 42 w
47 42 w
48 42 w
49 42 w
50 42 w
51 42 w
54 42 w
55 42 w
56 42 w
57 42 w
58 42 w
59 42 w
60 42 w
63 42 w
0 43 w
3 43 w
6 43 w
15 43 w
18 43 w
21 43 w
24 43 w
33 43 w
36 43 w
51 43 w
54 43 w
63 43 w
0 44 w
3 44 w
6 44 w
15 44 w
18 44 w
21 44 w
24 44 w
33 44 w
36 44 w
51 44 w
54 44 w
63 44 w
0 45 w
3 45 w
6 45 w
7 45 w
8 45 w
9 45 w
10 45 w
11 45 w
12 45 w
13 45 w
14 45 w
15 45 w
18 45 w
21 45 w
24 45 w
25 45 w
26 45 w
27 45 w
28 45 w
29 45 w
30 45 w
33 45 w
36 45 w
37 45 w
38 45 w
39 45 w
40 45 w
41 45 w
42 45 w
43 45 w
44 45 w
45 45 w
46 45 w
47 45 w
48 45 w
51 45 w
54 45 w
55 45 w
56 45 w
57 45 w
58 45 w
59 45 w
60 45 w
63 45 w
0 46 w
3 46 w
18 46 w
21 46 w
30 46 w
33 46 w
48 46 w
51 46 w
60 46 w
63 46 w
0 47 w
3 47 w
18 47 w
21 47 w
30 47 w
33 47 w
48 47 w
51 47 w
60 47 w
63 47 w
0 48 w
3 48 w
6 48 w
7 48 w
8 48 w
9 48 w
10 48 w
11 48 w
12 48 w
13 48 w
14 48 w
15 48 w
16 48 w
17 48 w
18 48 w
21 48 w
22 48 w
23 48 w
24 48 w
25 48 w
26 48 w
27 48 w
30 48 w
33 48 w
34 48 w
35 48 w
36 48 w
37 48 w
38 48 w
39 48 w
40 48 w
41 48 w
42 48 w
43 48 w
44 48 w
45 48 w
48 48 w
51 48 w
54 48 w
55 48 w
56 48 w
57 48 w
58 48 w
59 48 w
60 48 w
63 48 w
0 49 w
3 49 w
6 49 w
27 49 w
30 49 w
45 49 w
48 49 w
51 49 w
54 49 w
63 49 w
0 50 w
3 50 w
6 50 w
27 50 w
30 50 w
45 50 w
48 50 w
51 50 w
54 50 w
63 50 w
0 51 w
3 51 w
6 51 w
7 51 w
8 51 w
9 51 w
10 51 w
11 51 w
12 51 w
13 51 w
14 51 w
15 51 w
16 51 w
17 51 w
18 51 w
21 51 w
22 51 w
23 51 w
24 51 w
25 51 w
26 51 w
27 51 w
30 51 w
31 51 w
32 51 w
33 51 w
34 51 w
35 51 w
36 51 w
37 51 w
38 51 w
39 51 w
40 51 w
41 51 w
42 51 w
45 51 w
48 51 w
51 51 w
54 51 w
55 51 w
56 51 w
57 51 w
58 51 w
59 51 w
60 51 w
63 51 w
0 52 w
3 52 w
18 52 w
21 52 w
42 52 w
45 52 w
48 52 w
51 52 w
60 52 w
63 52 w
0 53 w
3 53 w
18 53 w
21 53 w
42 53 w
45 53 w
48 53 w
51 53 w
60 53 w
63 53 w
0 54 w
3 54 w
4 54 w
5 54 w
6 54 w
7 54 w
8 54 w
9 54 w
12 54 w
13 54 w
14 54 w
15 54 w
16 54 w
17 54 w
18 54 w
21 54 w
24 54 w
25 54 w
26 54 w
27 54 w
28 54 w
29 54 w
30 54 w
31 54 w
32 54 w
33 54 w
34 54 w
35 54 w
36 54 w
37 54 w
38 54 w
39 54 w
40 54 w
41 54 w
42 54 w
45 54 w
48 54 w
51 54 w
54 54 w
55 54 w
56 54 w
57 54 w
58 54 w
59 54 w
60 54 w
63 54 w
0 55 w
9 55 w
12 55 w
21 55 w
24 55 w
45 55 w
48 55 w
51 55 w
54 55 w
63 55 w
0 56 w
9 56 w
12 56 w
21 56 w
24 56 w
45 56 w
48 56 w
51 56 w
54 56 w
63 56 w
0 57 w
3 57 w
4 57 w
5 57 w
6 57 w
7 57 w
8 57 w
9 57 w
12 57 w
13 57 w
14 57 w
15 57 w
16 57 w
17 57 w
18 57 w
21 57 w
24 57 w
25 57 w
26 57 w
27 57 w
28 57 w
29 57 w
30 57 w
31 57 w
32 57 w
33 57 w
34 57 w
35 57 w
36 57 w
37 57 w
38 57 w
39 57 w
40 57 w
41 57 w
42 57 w
43 57 w
44 57 w
45 57 w
48 57 w
49 57 w
50 57 w
51 57 w
54 57 w
55 57 w
56 57 w
57 57 w
58 57 w
59 57 w
60 57 w
61 57 w
62 57 w
63 57 f
0 58 w
3 58 w
18 58 w
21 58 w
0 59 w
3 59 w
18 59 w
21 59 w
0 60 w
3 60 w
4 60 w
5 60 w
6 60 w
7 60 w
8 60 w
9 60 w
10 60 w
11 60 w
12 60 w
13 60 w
14 60 w
15 60 w
16 60 w
17 60 w
18 60 w
21 60 w
22 60 w
23 60 w
24 60 w
25 60 w
26 60 w
27 60 w
28 60 w
29 60 w
30 60 w
31 60 w
32 60 w
33 60 w
34 60 w
35 60 w
36 60 w
37 60 w
38 60 w
39 60 w
40 60 w
41 60 w
42 60 w
43 60 w
44 60 w
45 60 w
46 60 w
47 60 w
48 60 w
49 60 w
50 60 w
51 60 w
52 60 w
53 60 w
54 60 w
55 60 w
56 60 w
57 60 w
58 60 w
59 60 w
60 60 w
61 60 w
62 60 w
63 60 f
0 61 w
63 61 w
0 62 w
63 62 w
0 63 w
1 63 w
2 63 w
3 63 w
4 63 w
5 63 w
6 63 w
7 63 w
8 63 w
9 63 w
10 63 w
11 63 w
12 63 w
13 63 w
14 63 w
15 63 w
16 63 w
17 63 w
18 63 w
19 63 w
20 63 w
21 63 w
22 63 w
23 63 w
24 63 w
25 63 w
26 63 w
27 63 w
28 63 w
29 63 w
30 63 w
31 63 w
32 63 w
33 63 w
34 63 w
35 63 w
36 63 w
37 63 w
38 63 w
39 63 w
40 63 w
41 63 w
42 63 w
43 63 w
44 63 w
45 63 w
46 63 w
47 63 w
48 63 w
49 63 w
50 63 w
51 63 w
52 63 w
53 63 w
54 63 w
55 63 w
56 63 w
57 63 w
58 63 w
59 63 w
60 63 w
61 63 w
62 63 w
63 63 w

